…
new_data
```

    ## # A tibble: 160 x 4
    ##    arm     id    week   arm_val
    ##    <chr>   <chr> <chr>    <dbl>
    ##  1 control 01    week_1    0.2 
    ##  2 control 02    week_1    1.13
    ##  3 control 03    week_1    1.77
    ##  4 control 04    week_1    1.04
    ##  5 control 05    week_1    0.47
    ##  6 control 06    week_1    2.37
    ##  7 control 07    week_1    0.03
    ##  8 control 08    week_1   -0.08
    ##  9 control 09    week_1    0.08
    ## 10 control 10    week_1    2.14
    ## # ... with 150 more rows
…
